City,Country
Hong Kong,Hong Kong
Singapore,Singapore
Bangkok,Thailand
London,UK
Macau,Macau
Kuala Lumpur,Malaysia
Shenzhen,China
New York City,USA
Antalya,Turkey
Paris,France
Istanbul,Turkey
Rome,Italy
Dubai,UAE
Guangzhou,China
Phuket,Thailand
Mecca,Saudi Arabia
Pattaya,Thailand
Taipei City,Taiwan
Prague,Czech Republic
Shanghai,China
Las Vegas,USA
Miami,USA
Barcelona,Spain
Moscow,Russia
Beijing,China
Los Angeles,USA
Budapest,Hungary
Vienna,Austria
Amsterdam,Netherlands
Sofia,Bulgaria
Madrid,Spain
Orlando,USA
Ho Chi Minh City,Vietnam
Lima,Peru
Berlin,Germany
Tokyo,Japan
Warsaw,Poland
Chennai,India
Cairo,Egypt
Nairobi,Kenya
Hangzhou,China
Milan,Italy
San Francisco,USA
Buenos Aires,Argentina
Venice,Italy
Mexico City,Mexico
Dublin,Ireland
Seoul,South Korea
Mugla,Turkey
Mumbai,India
Denpasar,Indonesia
Delhi,India
Toronto,Canada
Zhuhai,China
St Petersburg,Russia
Burgas,Bulgaria
Sydney,Australia
Djerba,Tunisia
Munich,Germany
Johannesburg,South Africa
Cancun,Mexico
Edirne,Turkey
Suzhou,China
Bucharest,Romania
Punta Cana,Dominican Republic
Agra,India
Jaipur,India
Brussels,Belgium
Nice,France
Chiang Mai,Thailand
Sharm el-Sheikh,Egypt
Lisbon,Portugal
East Province,Saudi Arabia
Marrakech,Morocco
Jakarta,Indonesia
Manama,Bahrain
Hanoi,Vietnam
Honolulu,USA
Manila,Philippines
Guilin,China
Auckland,New Zealand
Siem Reap,Cambodia
Sousse,Tunisia
Amman,Jordan
Vancouver,Canada
Abu Dhabi,UAE
Kiev,Ukraine
Doha,Qatar
Florence,Italy
Rio de Janeiro,Brazil
Melbourne,Australia
Washington D.C.,USA
Riyadh,Saudi Arabia
Christchurch,New Zealand
Frankfurt,Germany
Baku,Azerbaijan
Sao Paulo,Brazil
Harare,Zimbabwe
Kolkata,India
Nanjing,China
